%!PS-Adobe-2.0 EPSF-2.0
%%BoundingBox:  0 0 529 737
%%Title: output/hc_sb_ss/eps-files/pulls_mu_125.eps: c1
%%Creator: ROOT Version 6.22/06
%%CreationDate: Tue May 23 16:32:23 2023
%%DocumentNeededResources: ProcSet (FontSetInit)
%%EndComments
%%BeginProlog
80 dict begin
/s {stroke} def /l {lineto} def /m {moveto} def /t {translate} def
/r {rotate} def /rl {roll}  def /R {repeat} def
/d {rlineto} def /rm {rmoveto} def /gr {grestore} def /f {eofill} def
/c {setrgbcolor} def /black {0 setgray} def /sd {setdash} def
/cl {closepath} def /sf {scalefont setfont} def /lw {setlinewidth} def
/box {m dup 0 exch d exch 0 d 0 exch neg d cl} def
/NC{systemdict begin initclip end}def/C{NC box clip newpath}def
/bl {box s} def /bf {gsave box gsave f grestore 1 lw [] 0 sd s grestore} def /Y { 0 exch d} def /X { 0 d} def 
/K {{pop pop 0 moveto} exch kshow} bind def
/ita {/ang 15 def gsave [1 0 ang dup sin exch cos div 1 0 0] concat} def 
/mp {newpath /y exch def /x exch def} def
/side {[w .77 mul w .23 mul] .385 w mul sd w 0 l currentpoint t -144 r} def
/mr {mp x y w2 0 360 arc} def /m24 {mr s} def /m20 {mr f} def
/mb {mp x y w2 add m w2 neg 0 d 0 w neg d w 0 d 0 w d cl} def
/mt {mp x y w2 add m w2 neg w neg d w 0 d cl} def
/w4 {w 4 div} def
/w6 {w 6 div} def
/w8 {w 8 div} def
/m21 {mb f} def /m25 {mb s} def /m22 {mt f} def /m26{mt s} def
/m23 {mp x y w2 sub m w2 w d w neg 0 d cl f} def
/m27 {mp x y w2 add m w3 neg w2 neg d w3 w2 neg d w3 w2 d cl s} def
/m28 {mp x w2 sub y w2 sub w3 add m w3 0 d  0 w3 neg d w3 0 d 0 w3 d w3 0 d  0 w3 d w3 neg 0 d 0 w3 d w3 neg 0 d 0 w3 neg d w3 neg 0 d cl s } def
/m29 {mp gsave x w2 sub y w2 add w3 sub m currentpoint t 4 {side} repeat cl fill gr} def
/m30 {mp gsave x w2 sub y w2 add w3 sub m currentpoint t 4 {side} repeat cl s gr} def
/m31 {mp x y w2 sub m 0 w d x w2 sub y m w 0 d x w2 .707 mul sub y w2 .707 mul add m w 1.44 div w 1.44 div neg d x w2 .707 mul sub y w2 .707 mul sub m w 1.44 div w 1.44 div d s} def
/m32 {mp x y w2 sub m w2 w d w neg 0 d cl s} def
/m33 {mp x y w2 add m w3 neg w2 neg d w3 w2 neg d w3 w2 d cl f} def
/m34 {mp x w2 sub y w2 sub w3 add m w3 0 d  0 w3 neg d w3 0 d 0 w3 d w3 0 d  0 w3 d w3 neg 0 d 0 w3 d w3 neg 0 d 0 w3 neg d w3 neg 0 d cl f } def
/m35 {mp x y w2 add m w2 neg w2 neg d w2 w2 neg d w2 w2 d w2 neg w2 d x y w2 sub m 0 w d x w2 sub y m w 0 d s} def
/m36 {mb x w2 sub y w2 add m w w neg d x w2 sub y w2 sub m w w d s} def
/m37 {mp x y m w4 neg w2 d w4 neg w2 neg d w2 0 d  w4 neg w2 neg d w2 0 d w4 neg w2 d w2 0 d w4 neg w2 d w4 neg w2 neg d cl s} def
/m38 {mp x w4 sub y w2 add m w4 neg w4 neg d 0 w2 neg d w4 w4 neg d w2 0 d w4 w4 d 0 w2 d w4 neg w4 d w2 neg 0 d x y w2 sub m 0 w d x w2 sub y m w 0 d cl s} def
/m39 {mp x y m w4 neg w2 d w4 neg w2 neg d w2 0 d  w4 neg w2 neg d w2 0 d w4 neg w2 d w2 0 d w4 neg w2 d w4 neg w2 neg d cl f} def
/m40 {mp x y m w4 w2 d w4 w4 neg d w2 neg w4 neg d w2 w4 neg d w4 neg w4 neg d w4 neg w2 d w4 neg w2 neg d w4 neg w4 d w2 w4 d w2 neg w4 d w4 w4 d w4 w2 neg d cl s} def
/m41 {mp x y m w4 w2 d w4 w4 neg d w2 neg w4 neg d w2 w4 neg d w4 neg w4 neg d w4 neg w2 d w4 neg w2 neg d w4 neg w4 d w2 w4 d w2 neg w4 d w4 w4 d w4 w2 neg d cl f} def
/m42 {mp x y w2 add m w8 neg w2 -3 4 div mul d w2 -3 4 div mul w8 neg d w2 3 4 div mul w8 neg d w8 w2 -3 4 div mul d w8 w2 3 4 div mul d w2 3 4 div mul w8 d w2 -3 4 div mul w8 d w8 neg w2 3 4 div mul d cl s} def
/m43 {mp x y w2 add m w8 neg w2 -3 4 div mul d w2 -3 4 div mul w8 neg d w2 3 4 div mul w8 neg d w8 w2 -3 4 div mul d w8 w2 3 4 div mul d w2 3 4 div mul w8 d w2 -3 4 div mul w8 d w8 neg w2 3 4 div mul d cl f} def
/m44 {mp x y m w6 neg w2 d w2 2 3 div mul 0 d w6 neg w2 neg d w2 w6 d 0 w2 -2 3 div mul d w2 neg w6 d w6 w2 neg d w2 -2 3 div mul 0 d w6 w2 d w2 neg w6 neg d 0 w2 2 3 div mul d w2 w6 neg d cl s} def
/m45 {mp x y m w6 neg w2 d w2 2 3 div mul 0 d w6 neg w2 neg d w2 w6 d 0 w2 -2 3 div mul d w2 neg w6 d w6 w2 neg d w2 -2 3 div mul 0 d w6 w2 d w2 neg w6 neg d 0 w2 2 3 div mul d w2 w6 neg d cl f} def
/m46 {mp x y w4 add m w4 neg w4 d w4 neg w4 neg d  w4 w4 neg d w4 neg w4 neg d w4 w4 neg d w4 w4 d w4 w4 neg d w4 w4 d w4 neg w4 d w4 w4 d w4 neg w4 d w4 neg w4 neg d cl s} def
/m47 {mp x y w4 add m w4 neg w4 d w4 neg w4 neg d w4 w4 neg d w4 neg w4 neg d  w4 w4 neg d w4 w4 d w4 w4 neg d w4 w4 d w4 neg w4 d w4 w4 d w4 neg w4 d w4 neg w4 neg d cl f} def
/m48 {mp x y w4 add m w4 neg w4 d w4 neg w4 neg d w4 w4 neg d  w4 neg w4 neg d w4 w4 neg d w4 w4 d w4 w4 neg d w4 w4 d w4 neg w4 d w4 w4 d w4 neg w4 d w4 neg w4 neg d  w4 w4 neg d w4 neg w4 neg d w4 neg w4 d w4 w4 d cl f} def
/m49 {mp x w2 sub w3 add y w2 sub w3 add m  0 w3 neg d w3 0 d 0 w3 d w3 0 d 0 w3 d w3 neg 0 d 0 w3 d w3 neg 0 d 0 w3 neg d w3 neg 0 d 0 w3 neg d w3 0 d 0 w3 d w3 0 d 0 w3 neg d w3 neg 0 d cl f } def
/m2 {mp x y w2 sub m 0 w d x w2 sub y m w 0 d s} def
/m5 {mp x w2 .707 mul sub y w2 .707 mul sub m w 1.44 div w 1.44 div d x w2 .707 mul sub y w2 .707 mul add m w 1.44 div w 1.44 div neg d s} def
%%IncludeResource: ProcSet (FontSetInit)
%%IncludeResource: font Times-Roman
%%IncludeResource: font Times-Italic
%%IncludeResource: font Times-Bold
%%IncludeResource: font Times-BoldItalic
%%IncludeResource: font Helvetica
%%IncludeResource: font Helvetica-Oblique
%%IncludeResource: font Helvetica-Bold
%%IncludeResource: font Helvetica-BoldOblique
%%IncludeResource: font Courier
%%IncludeResource: font Courier-Oblique
%%IncludeResource: font Courier-Bold
%%IncludeResource: font Courier-BoldOblique
%%IncludeResource: font Symbol
%%IncludeResource: font ZapfDingbats
/reEncode {exch findfont dup length dict begin {1 index /FID eq  {pop pop} {def} ifelse } forall /Encoding exch def currentdict end dup /FontName get exch definefont pop } def [/Times-Bold /Times-Italic /Times-BoldItalic /Helvetica /Helvetica-Oblique
 /Helvetica-Bold /Helvetica-BoldOblique /Courier /Courier-Oblique /Courier-Bold /Courier-BoldOblique /Times-Roman /AvantGarde-Book /AvantGarde-BookOblique /AvantGarde-Demi /AvantGarde-DemiOblique /Bookman-Demi /Bookman-DemiItalic /Bookman-Light
 /Bookman-LightItalic /Helvetica-Narrow /Helvetica-Narrow-Bold /Helvetica-Narrow-BoldOblique /Helvetica-Narrow-Oblique /NewCenturySchlbk-Roman /NewCenturySchlbk-Bold /NewCenturySchlbk-BoldItalic /NewCenturySchlbk-Italic /Palatino-Bold
 /Palatino-BoldItalic /Palatino-Italic /Palatino-Roman ] {ISOLatin1Encoding reEncode } forall
%%EndProlog
%%BeginSetup
%%EndSetup
newpath  gsave  .25 .25 scale  gsave  0 0 t black[  ] 0 sd 3 lw 1 1 1 c 2118 2948 0 0 bf black 1 1 1 c 2118 2948 0 0 bf black 1 1 1 c 1377 2418 635 265 bf black 1377 2418 635 265 bl 1 1 1 c 635 265 m 1377 X s 749 323 m -58 Y s 788 294 m -29 Y s 826
 294 m -29 Y s 864 294 m -29 Y s 903 294 m -29 Y s 941 323 m -58 Y s 980 294 m -29 Y s 1018 294 m -29 Y s 1056 294 m -29 Y s 1095 294 m -29 Y s 1133 323 m -58 Y s 1172 294 m -29 Y s 1210 294 m -29 Y s 1248 294 m -29 Y s 1287 294 m -29 Y s 1325 323 m
 -58 Y s 1364 294 m -29 Y s 1402 294 m -29 Y s 1440 294 m -29 Y s 1479 294 m -29 Y s 1517 323 m -58 Y s 1556 294 m -29 Y s 1594 294 m -29 Y s 1632 294 m -29 Y s 1671 294 m -29 Y s 1709 323 m -58 Y s 1748 294 m -29 Y s 1786 294 m -29 Y s 1824 294 m
 -29 Y s 1863 294 m -29 Y s 1901 323 m -58 Y s 749 323 m -58 Y s 711 294 m -29 Y s 672 294 m -29 Y s 1901 323 m -58 Y s 1940 294 m -29 Y s 1978 294 m -29 Y s black 1 1 1 c
 gsave  2118 2948 0 0 C 747.388 168.162 t 0 r /Helvetica findfont 68.5106 sf 0 0 m (3) show NC gr  black 1 1 1 c
 gsave  2118 2948 0 0 C 710.019 168.162 t 0 r /Symbol findfont 68.5106 sf 0 0 m (-) show NC gr  black 1 1 1 c
 gsave  2118 2948 0 0 C 940.464 168.162 t 0 r /Helvetica findfont 68.5106 sf 0 0 m (2) show NC gr  black 1 1 1 c
 gsave  2118 2948 0 0 C 903.094 168.162 t 0 r /Symbol findfont 68.5106 sf 0 0 m (-) show NC gr  black 1 1 1 c
 gsave  2118 2948 0 0 C 1135.61 168.162 t 0 r /Helvetica findfont 68.5106 sf 0 0 m (1) show NC gr  black 1 1 1 c
 gsave  2118 2948 0 0 C 1100.32 168.162 t 0 r /Symbol findfont 68.5106 sf 0 0 m (-) show NC gr  black 1 1 1 c
 gsave  2118 2948 0 0 C 1305.85 168.162 t 0 r /Helvetica findfont 68.5106 sf 0 0 m (0) show NC gr  black 1 1 1 c
 gsave  2118 2948 0 0 C 1503.08 168.162 t 0 r /Helvetica findfont 68.5106 sf 0 0 m (1) show NC gr  black 1 1 1 c
 gsave  2118 2948 0 0 C 1689.93 168.162 t 0 r /Helvetica findfont 68.5106 sf 0 0 m (2) show NC gr  black 1 1 1 c
 gsave  2118 2948 0 0 C 1880.93 168.162 t 0 r /Helvetica findfont 68.5106 sf 0 0 m (3) show NC gr  black 635 265 m 2418 Y s
 gsave  2118 2948 0 0 C 195.151 683.03 t 0 r /Helvetica findfont 39.4455 sf 0 0 m (binNomsNRBkdCTag10) show NC gr 
 gsave  2118 2948 0 0 C 244.977 761.921 t 0 r /Helvetica findfont 39.4455 sf 0 0 m (alpha_cTagPowHW7) show NC gr 
 gsave  2118 2948 0 0 C 195.151 838.736 t 0 r /Helvetica findfont 39.4455 sf 0 0 m (alpha_EG_SCALE_ALL) show NC gr 
 gsave  2118 2948 0 0 C 197.227 917.627 t 0 r /Helvetica findfont 39.4455 sf 0 0 m (alpha_MOD_QCD_VBF) show NC gr 
 gsave  2118 2948 0 0 C 176.467 994.442 t 0 r /Helvetica findfont 39.4455 sf 0 0 m (alpha_MOD_QCD_WMH) show NC gr 
 gsave  2118 2948 0 0 C 190.999 1073.33 t 0 r /Helvetica findfont 39.4455 sf 0 0 m (alpha_MOD_QCD_QZH) show NC gr 
 gsave  2118 2948 0 0 C 120.413 1150.15 t 0 r /Helvetica findfont 39.4455 sf 0 0 m (alpha_MOD_ALPHAS_GGF) show NC gr 
 gsave  2118 2948 0 0 C 182.695 1229.04 t 0 r /Helvetica findfont 39.4455 sf 0 0 m (alpha_MOD_QCD_WPH) show NC gr 
 gsave  2118 2948 0 0 C 87.1953 1305.85 t 0 r /Helvetica findfont 39.4455 sf 0 0 m (alpha_JET_Pileup_OffsetNPV) show NC gr 
 gsave  2118 2948 0 0 C 161.934 1386.82 t 0 r /Helvetica findfont 39.4455 sf 0 0 m (alpha_JET_EffectiveNP_1) show NC gr 
 gsave  2118 2948 0 0 C 58.1302 1463.64 t 0 r /Helvetica findfont 39.4455 sf 0 0 m (alpha_JET_JER_EffectiveNP_4) show NC gr 
 gsave  2118 2948 0 0 C -103.804 1542.53 t 0 r /Helvetica findfont 39.4455 sf 0 0 m (alpha_JET_EtaIntercalibration_Modelling) show NC gr 
 gsave  2118 2948 0 0 C 444.281 1619.34 t 0 r /Helvetica findfont 39.4455 sf 0 0 m (alpha_SS) show NC gr 
 gsave  2118 2948 0 0 C 255.358 1696.16 t 0 r /Helvetica findfont 39.4455 sf 0 0 m (alpha_PH_EFF_ISO) show NC gr 
 gsave  2118 2948 0 0 C 95.4996 1777.12 t 0 r /Helvetica findfont 39.4455 sf 0 0 m (alpha_JET_Flavor_Response) show NC gr 
 gsave  2118 2948 0 0 C 284.423 1853.94 t 0 r /Helvetica findfont 39.4455 sf 0 0 m (alpha_PH_EFF_ID) show NC gr 
 gsave  2118 2948 0 0 C 390.303 1932.83 t 0 r /Helvetica findfont 39.4455 sf 0 0 m (alpha_THBR) show NC gr 
 gsave  2118 2948 0 0 C 37.3694 2009.64 t 0 r /Helvetica findfont 39.4455 sf 0 0 m (alpha_JET_Pileup_RhoTopology) show NC gr 
 gsave  2118 2948 0 0 C 56.0541 2086.46 t 0 r /Helvetica findfont 39.4455 sf 0 0 m (alpha_JET_Flavor_Composition) show NC gr 
 gsave  2118 2948 0 0 C 186.847 2165.35 t 0 r /Helvetica findfont 39.4455 sf 0 0 m (alpha_MOD_QCD_GGF) show NC gr 
 gsave  2118 2948 0 0 C 68.5106 2242.16 t 0 r /Helvetica findfont 39.4455 sf 0 0 m (alpha_EG_RESOLUTION_ALL) show NC gr 
 gsave  2118 2948 0 0 C 143.249 2321.06 t 0 r /Helvetica findfont 39.4455 sf 0 0 m (alpha_MOD_ALGPS_GGF) show NC gr 
 gsave  2118 2948 0 0 C 205.532 2399.95 t 0 r /Helvetica findfont 39.4455 sf 0 0 m (alpha_cTagLightAdHoc) show NC gr 
 gsave  2118 2948 0 0 C 280.271 2476.76 t 0 r /Helvetica findfont 39.4455 sf 0 0 m (alpha_THEO_GGF) show NC gr 
 gsave  2118 2948 0 0 C 265.738 2555.65 t 0 r /Helvetica findfont 39.4455 sf 0 0 m (alpha_cTagVTXBkd) show NC gr  635 265 m cl s 635 343 m cl s 635 421 m cl s 635 499 m cl s 635 577 m cl s 635 655 m cl s 635 733 m cl s 635 811 m cl s 635 889 m cl s
 635 967 m cl s 635 1045 m cl s 635 1123 m cl s 635 1201 m cl s 635 1279 m cl s 635 1357 m cl s 635 1435 m cl s 635 1513 m cl s 635 1591 m cl s 635 1669 m cl s 635 1747 m cl s 635 1825 m cl s 635 1903 m cl s 635 1981 m cl s 635 2059 m cl s 635 2137 m
 cl s 635 2215 m cl s 635 2293 m cl s 635 2371 m cl s 635 2449 m cl s 635 2527 m cl s 635 2605 m cl s 635 2683 m cl s 0.9 0.9 0.9 c 1377 78 635 655 bf 1377 78 635 811 bf 1377 78 635 967 bf 1377 78 635 1123 bf 1377 78 635 1279 bf 1377 78 635 1435 bf
 1377 78 635 1591 bf 1377 78 635 1747 bf 1377 78 635 1903 bf 1377 78 635 2059 bf 1377 78 635 2215 bf 1377 78 635 2371 bf 1377 78 635 2527 bf black 1 1 0.4 c 325 78 1164 655 bf 50 78 1302 733 bf 195 78 1186 811 bf 77 78 1288 889 bf 90 78 1275 967 bf
 91 78 1273 1045 bf 114 78 1271 1123 bf 114 78 1260 1201 bf 132 78 1259 1279 bf 142 78 1255 1357 bf 141 78 1255 1435 bf 150 78 1251 1513 bf 160 78 1165 1591 bf 220 78 1217 1669 bf 232 78 1210 1747 bf 232 78 1211 1825 bf 236 78 1209 1903 bf 364 78
 1140 1981 bf 470 78 1090 2059 bf 481 78 1117 2137 bf 541 78 1095 2215 bf 539 78 1043 2293 bf 761 78 981 2371 bf 782 78 1000 2449 bf 1024 78 796 2527 bf black 0.2 0.2 1 c 6 lw 49 78 1301 655 bl 50 78 1302 733 bl 51 78 1299 811 bl 77 78 1288 889 bl 90
 78 1275 967 bl 90 78 1274 1045 bl 112 78 1272 1123 bl 114 78 1260 1201 bl 130 78 1260 1279 bl 140 78 1255 1357 bl 140 78 1255 1435 bl 148 78 1252 1513 bl 159 78 1166 1591 bl 216 78 1219 1669 bl 227 78 1212 1747 bl 228 78 1213 1825 bl 231 78 1212
 1903 bl 351 78 1147 1981 bl 447 78 1101 2059 bl 453 78 1129 2137 bl 470 78 1128 2215 bl 508 78 1060 2293 bl 647 78 1037 2371 bl 693 78 1037 2449 bl 868 78 884 2527 bl black 0.2 0.2 1 c 1325 687 m -24 -24 d s 1325 725 m -24 -24 d s 1352 752 m -18 -19
 d s 1352 789 m -27 -27 d s 1336 811 m -11 -11 d s 1325 837 m -26 -26 d s 1325 875 m -26 -26 d s 1302 889 m -3 -3 d s 1325 912 m -23 -23 d s 1325 950 m -37 -37 d s 1305 967 m -17 -16 d s 1325 988 m -20 -21 d s 1325 1025 m -50 -50 d s 1308 1045 m -33
 -32 d s 1325 1063 m -17 -18 d s 1325 1100 m -51 -51 d s 1311 1123 m -37 -37 d s 1325 1138 m -14 -15 d s 1325 1175 m -52 -52 d s 1314 1201 m -42 -42 d s 1276 1201 m -4 -4 d s 1325 1213 m -11 -12 d s 1325 1250 m -49 -49 d s 1317 1279 m -57 -56 d s
 1279 1279 m -19 -19 d s 1325 1288 m -8 -9 d s 1325 1325 m -46 -46 d s 1320 1357 m -60 -60 d s 1282 1357 m -22 -22 d s 1325 1363 m -5 -6 d s 1325 1400 m -43 -43 d s 1322 1435 m -67 -67 d s 1285 1435 m -30 -29 d s 1325 1438 m -3 -3 d s 1325 1475 m -40
 -40 d s 1325 1513 m -70 -70 d s 1288 1513 m -33 -33 d s 1325 1550 m -37 -37 d s 1325 1588 m -73 -74 d s 1291 1591 m -39 -39 d s 1253 1591 m -1 -2 d s 1325 1625 m -34 -34 d s 1325 1663 m -72 -72 d s 1294 1669 m -78 -78 d s 1256 1669 m -78 -78 d s
 1219 1669 m -53 -52 d s 1181 1669 m -15 -15 d s 1325 1700 m -31 -31 d s 1325 1738 m -69 -69 d s 1297 1747 m -78 -78 d s 1259 1747 m -40 -40 d s 1222 1747 m -3 -3 d s 1439 1777 m -30 -30 d s 1439 1815 m -67 -68 d s 1412 1825 m -78 -78 d s 1375 1825 m
 -50 -50 d s 1337 1825 m -12 -12 d s 1325 1851 m -25 -26 d s 1325 1888 m -63 -63 d s 1303 1903 m -78 -78 d s 1265 1903 m -52 -52 d s 1228 1903 m -15 -14 d s 1325 1926 m -22 -23 d s 1325 1963 m -60 -60 d s 1305 1981 m -77 -78 d s 1268 1981 m -56 -56 d
 s 1230 1981 m -18 -19 d s 1325 2001 m -20 -20 d s 1325 2038 m -57 -57 d s 1308 2059 m -78 -78 d s 1271 2059 m -78 -78 d s 1233 2059 m -78 -78 d s 1196 2059 m -49 -49 d s 1158 2059 m -11 -12 d s 1325 2076 m -17 -17 d s 1325 2113 m -54 -54 d s 1311
 2137 m -78 -78 d s 1274 2137 m -78 -78 d s 1236 2137 m -78 -78 d s 1199 2137 m -78 -78 d s 1161 2137 m -60 -60 d s 1124 2137 m -23 -22 d s 1325 2151 m -14 -14 d s 1325 2188 m -51 -51 d s 1314 2215 m -78 -78 d s 1277 2215 m -78 -78 d s 1239 2215 m
 -78 -78 d s 1202 2215 m -73 -73 d s 1164 2215 m -35 -36 d s 1598 2236 m -21 -21 d s 1598 2274 m -59 -59 d s 1580 2293 m -78 -78 d s 1542 2293 m -78 -78 d s 1505 2293 m -78 -78 d s 1467 2293 m -78 -78 d s 1430 2293 m -78 -78 d s 1392 2293 m -67 -67 d
 s 1355 2293 m -30 -30 d s 1325 2301 m -8 -8 d s 1325 2338 m -45 -45 d s 1320 2371 m -78 -78 d s 1283 2371 m -78 -78 d s 1245 2371 m -78 -78 d s 1208 2371 m -78 -78 d s 1170 2371 m -78 -78 d s 1133 2371 m -73 -73 d s 1095 2371 m -35 -36 d s 1325 2376
 m -5 -5 d s 1325 2413 m -42 -42 d s 1323 2449 m -78 -78 d s 1286 2449 m -78 -78 d s 1248 2449 m -78 -78 d s 1211 2449 m -78 -78 d s 1173 2449 m -78 -78 d s 1135 2449 m -77 -78 d s 1098 2449 m -61 -61 d s 1060 2449 m -23 -24 d s 1325 2451 m -2 -2 d s
 1325 2488 m -39 -39 d s 1325 2526 m -77 -77 d s 1289 2527 m -78 -78 d s 1251 2527 m -78 -78 d s 1213 2527 m -78 -78 d s 1176 2527 m -78 -78 d s 1138 2527 m -78 -78 d s 1101 2527 m -64 -64 d s 1063 2527 m -26 -27 d s 1325 2563 m -36 -36 d s 1325 2601
 m -74 -74 d s 1291 2605 m -78 -78 d s 1254 2605 m -78 -78 d s 1216 2605 m -78 -78 d s 1179 2605 m -78 -78 d s 1141 2605 m -78 -78 d s 1104 2605 m -78 -78 d s 1066 2605 m -78 -78 d s 1029 2605 m -78 -78 d s 991 2605 m -78 -78 d s 954 2605 m -70 -70 d
 s 916 2605 m -32 -33 d s black 0 0 1 c 3 lw 635 2683 m 1377 X s 705 2625 m 58 Y s 736 2654 m 29 Y s 767 2654 m 29 Y s 798 2654 m 29 Y s 829 2654 m 29 Y s 860 2625 m 58 Y s 891 2654 m 29 Y s 922 2654 m 29 Y s 953 2654 m 29 Y s 984 2654 m 29 Y s 1015
 2625 m 58 Y s 1046 2654 m 29 Y s 1077 2654 m 29 Y s 1108 2654 m 29 Y s 1139 2654 m 29 Y s 1170 2625 m 58 Y s 1201 2654 m 29 Y s 1232 2654 m 29 Y s 1263 2654 m 29 Y s 1294 2654 m 29 Y s 1325 2625 m 58 Y s 1356 2654 m 29 Y s 1387 2654 m 29 Y s 1418
 2654 m 29 Y s 1449 2654 m 29 Y s 1480 2625 m 58 Y s 1511 2654 m 29 Y s 1542 2654 m 29 Y s 1573 2654 m 29 Y s 1605 2654 m 29 Y s 1636 2625 m 58 Y s 1667 2654 m 29 Y s 1698 2654 m 29 Y s 1729 2654 m 29 Y s 1760 2654 m 29 Y s 1791 2625 m 58 Y s 1822
 2654 m 29 Y s 1853 2654 m 29 Y s 1884 2654 m 29 Y s 1915 2654 m 29 Y s 1946 2625 m 58 Y s 705 2625 m 58 Y s 674 2654 m 29 Y s 642 2654 m 29 Y s 1946 2625 m 58 Y s 1977 2654 m 29 Y s 2008 2654 m 29 Y s black 0 0 1 c
 gsave  2118 2948 0 0 C 674.726 2725.89 t 0 r /Helvetica findfont 66.4345 sf 0 0 m (0.4) show NC gr  black 0 0 1 c
 gsave  2118 2948 0 0 C 639.432 2725.89 t 0 r /Symbol findfont 66.4345 sf 0 0 m (-) show NC gr  black 0 0 1 c
 gsave  2118 2948 0 0 C 832.507 2725.89 t 0 r /Helvetica findfont 66.4345 sf 0 0 m (0.3) show NC gr  black 0 0 1 c
 gsave  2118 2948 0 0 C 795.138 2725.89 t 0 r /Symbol findfont 66.4345 sf 0 0 m (-) show NC gr  black 0 0 1 c
 gsave  2118 2948 0 0 C 984.061 2725.89 t 0 r /Helvetica findfont 66.4345 sf 0 0 m (0.2) show NC gr  black 0 0 1 c
 gsave  2118 2948 0 0 C 948.768 2725.89 t 0 r /Symbol findfont 66.4345 sf 0 0 m (-) show NC gr  black 0 0 1 c
 gsave  2118 2948 0 0 C 1146 2725.89 t 0 r /Helvetica findfont 66.4345 sf 0 0 m (0.1) show NC gr  black 0 0 1 c
 gsave  2118 2948 0 0 C 1110.7 2725.89 t 0 r /Symbol findfont 66.4345 sf 0 0 m (-) show NC gr  black 0 0 1 c
 gsave  2118 2948 0 0 C 1305.85 2725.89 t 0 r /Helvetica findfont 66.4345 sf 0 0 m (0) show NC gr  black 0 0 1 c
 gsave  2118 2948 0 0 C 1440.8 2725.89 t 0 r /Helvetica findfont 66.4345 sf 0 0 m (0.1) show NC gr  black 0 0 1 c
 gsave  2118 2948 0 0 C 1588.2 2725.89 t 0 r /Helvetica findfont 66.4345 sf 0 0 m (0.2) show NC gr  black 0 0 1 c
 gsave  2118 2948 0 0 C 1743.91 2725.89 t 0 r /Helvetica findfont 66.4345 sf 0 0 m (0.3) show NC gr  black 0 0 1 c
 gsave  2118 2948 0 0 C 1899.61 2725.89 t 0 r /Helvetica findfont 66.4345 sf 0 0 m (0.4) show NC gr  black 0 0 1 c
 gsave  2118 2948 0 0 C 1972.27 2844.23 t 0 r /Symbol findfont 66.4345 sf 0 0 m (m) show NC gr  black 0 0 1 c
 gsave  2118 2948 0 0 C 1930.75 2844.23 t 0 r /Symbol findfont 66.4345 sf 0 0 m (D) show NC gr  black 635 265 m 1377 X s 663 323 m -58 Y s 707 294 m -29 Y s 751 294 m -29 Y s 795 294 m -29 Y s 839 294 m -29 Y s 884 323 m -58 Y s 928 294 m -29 Y s 972
 294 m -29 Y s 1016 294 m -29 Y s 1060 294 m -29 Y s 1104 323 m -58 Y s 1149 294 m -29 Y s 1193 294 m -29 Y s 1237 294 m -29 Y s 1281 294 m -29 Y s 1325 323 m -58 Y s 1369 294 m -29 Y s 1414 294 m -29 Y s 1458 294 m -29 Y s 1502 294 m -29 Y s 1546
 323 m -58 Y s 1590 294 m -29 Y s 1634 294 m -29 Y s 1679 294 m -29 Y s 1723 294 m -29 Y s 1767 323 m -58 Y s 1811 294 m -29 Y s 1855 294 m -29 Y s 1899 294 m -29 Y s 1944 294 m -29 Y s 1988 323 m -58 Y s 663 323 m -58 Y s 1988 323 m -58 Y s
 gsave  2118 2948 0 0 C 633.204 172.315 t 0 r /Helvetica findfont 66.4345 sf 0 0 m (1.5) show NC gr 
 gsave  2118 2948 0 0 C 597.911 172.315 t 0 r /Symbol findfont 66.4345 sf 0 0 m (-) show NC gr 
 gsave  2118 2948 0 0 C 886.486 172.315 t 0 r /Helvetica findfont 66.4345 sf 0 0 m (1) show NC gr 
 gsave  2118 2948 0 0 C 851.192 172.315 t 0 r /Symbol findfont 66.4345 sf 0 0 m (-) show NC gr 
 gsave  2118 2948 0 0 C 1073.33 172.315 t 0 r /Helvetica findfont 66.4345 sf 0 0 m (0.5) show NC gr 
 gsave  2118 2948 0 0 C 1038.04 172.315 t 0 r /Symbol findfont 66.4345 sf 0 0 m (-) show NC gr 
 gsave  2118 2948 0 0 C 1305.85 172.315 t 0 r /Helvetica findfont 66.4345 sf 0 0 m (0) show NC gr 
 gsave  2118 2948 0 0 C 1498.93 172.315 t 0 r /Helvetica findfont 66.4345 sf 0 0 m (0.5) show NC gr 
 gsave  2118 2948 0 0 C 1754.29 172.315 t 0 r /Helvetica findfont 66.4345 sf 0 0 m (1) show NC gr 
 gsave  2118 2948 0 0 C 1941.13 172.315 t 0 r /Helvetica findfont 66.4345 sf 0 0 m (1.5) show NC gr  635 655 m 2028 Y s 0.4 0.4 0.4 c[ 12 12] 0 sd 6 lw 1325 655 m 1950 Y s 1767 655 m 1950 Y s 884 655 m 1950 Y s black[  ] 0 sd 9 lw 1309 772 m -421 X s
 888 762 m 21 Y s 1342 772 m 421 X s 1763 762 m 21 Y s 1309 850 m -228 X s 1081 840 m 21 Y s 1342 850 m 227 X s 1569 840 m 21 Y s 1309 928 m -422 X s 887 918 m 21 Y s 1342 928 m 421 X s 1763 918 m 21 Y s 1309 1006 m -422 X s 887 996 m 21 Y s 1342
 1006 m 421 X s 1763 996 m 21 Y s 1309 1084 m -422 X s 887 1074 m 20 Y s 1342 1084 m 421 X s 1763 1074 m 20 Y s 1309 1162 m -421 X s 888 1152 m 20 Y s 1342 1162 m 421 X s 1763 1152 m 20 Y s 1309 1240 m -421 X s 888 1230 m 20 Y s 1342 1240 m 421 X s
 1763 1230 m 20 Y s 1309 1318 m -420 X s 889 1308 m 20 Y s 1342 1318 m 420 X s 1762 1308 m 20 Y s 1309 1396 m -420 X s 889 1386 m 20 Y s 1342 1396 m 420 X s 1762 1386 m 20 Y s 1309 1474 m -423 X s 886 1464 m 20 Y s 1342 1474 m 422 X s 1764 1464 m 20
 Y s 1309 1552 m -420 X s 889 1542 m 20 Y s 1342 1552 m 419 X s 1761 1542 m 20 Y s 1308 1630 m -421 X s 887 1620 m 20 Y s 1342 1630 m 421 X s 1763 1620 m 20 Y s 1309 1708 m -417 X s 892 1698 m 20 Y s 1342 1708 m 417 X s 1759 1698 m 20 Y s 1309 1786 m
 -417 X s 892 1776 m 20 Y s 1342 1786 m 416 X s 1758 1776 m 20 Y s 1309 1864 m -417 X s 892 1854 m 20 Y s 1342 1864 m 416 X s 1758 1854 m 20 Y s 1309 1942 m -416 X s 893 1932 m 20 Y s 1342 1942 m 416 X s 1758 1932 m 20 Y s 1309 2020 m -410 X s 899
 2009 m 21 Y s 1342 2020 m 410 X s 1752 2009 m 21 Y s 1309 2098 m -404 X s 905 2087 m 21 Y s 1342 2098 m 403 X s 1745 2087 m 21 Y s 1309 2176 m -401 X s 908 2165 m 21 Y s 1342 2176 m 400 X s 1742 2165 m 21 Y s 1308 2254 m -364 X s 944 2243 m 21 Y s
 1342 2254 m 364 X s 1706 2243 m 21 Y s 1309 2332 m -401 X s 908 2321 m 21 Y s 1342 2332 m 400 X s 1742 2321 m 21 Y s 1309 2410 m -357 X s 952 2399 m 21 Y s 1342 2410 m 356 X s 1698 2399 m 21 Y s 1309 2488 m -376 X s 933 2477 m 21 Y s 1342 2488 m 375
 X s 1717 2477 m 21 Y s 1309 2566 m -357 X s 952 2555 m 21 Y s 1342 2566 m 357 X s 1699 2555 m 21 Y s 1 1 1 c black 3 lw /w 33 def /w2 {w 2 div} def /w3 {w 3 div} def 1325 772 1325 850 1325 928 1325 1006 1325 1084 1325 1162 1325 1240 1325 1318 1325
 1396 1325 1474 1325 1552 1325 1630 1325 1708 1325 1786 1325 1864 1325 1942 1325 2020 1325 2098 1325 2176 1325 2254 1325 2332 1325 2410 1325 2488 1325 2566 24 { m20} R 9 lw
 gsave  2118 2948 0 0 C 1799.96 568.846 t 0 r /Symbol findfont 43.5976 sf 0 0 m (q) show NC gr 
 gsave  2118 2948 0 0 C 1772.97 568.846 t 0 r /Symbol findfont 43.5976 sf 0 0 m (D) show NC gr 
 gsave  2118 2948 0 0 C 1745.98 568.846 t 0 r /Helvetica findfont 43.5976 sf 0 0 m (\)/) show NC gr 
 gsave  2118 2948 0 0 C 1729.37 554.313 t 0 r /Helvetica findfont 29.0651 sf 0 0 m (0) show NC gr 
 gsave  2118 2948 0 0 C 1706.54 568.846 t 0 r /Symbol findfont 43.5976 sf 0 0 m (q) show NC gr 
 gsave  2118 2948 0 0 C 1667.09 568.846 t 0 r /Helvetica findfont 43.5976 sf 0 0 m ( \255 ) show NC gr 
 gsave  2118 2948 0 0 C 1644.25 568.846 t 0 r /Symbol findfont 43.5976 sf 0 0 m (q) show NC gr  6 lw 1646 600 m 9 8 d s 1655 608 m 8 -8 d s
 gsave  2118 2948 0 0 C 1534.22 568.846 t 0 r /Helvetica findfont 43.5976 sf 0 0 m (Pull: \() show NC gr  9 lw 1310 583 m 186 X s 3 lw 1403 583 m20 9 lw
 gsave  2118 2948 0 0 C 1534.22 496.183 t 0 r /Helvetica findfont 43.5976 sf 0 0 m (Normalisation) show NC gr  1 0 0 c 1310 511 m 186 X s 3 lw 1403 511 m24 9 lw black
 gsave  2118 2948 0 0 C 1951.51 423.52 t 0 r /Symbol findfont 43.5976 sf 0 0 m (m) show NC gr 
 gsave  2118 2948 0 0 C 1602.73 423.52 t 0 r /Helvetica findfont 43.5976 sf 0 0 m ( Postfit Impact on ) show NC gr 
 gsave  2118 2948 0 0 C 1575.74 423.52 t 0 r /Symbol findfont 43.5976 sf 0 0 m (s) show NC gr 
 gsave  2118 2948 0 0 C 1534.22 423.52 t 0 r /Helvetica findfont 43.5976 sf 0 0 m (+1) show NC gr  0.2 0.2 1 c 6 lw 1496 445 m -31 -31 d s 1478 465 m -51 -51 d s 1440 465 m -50 -51 d s 1403 465 m -51 -51 d s 1365 465 m -50 -51 d s 1328 465 m -18 -18
 d s 9 lw 1 0 0 c 0.2 0.2 1 c 6 lw 1310 465 m 186 X s 1310 414 m 186 X s 1496 414 m 51 Y s 1310 414 m 51 Y s black
 gsave  2118 2948 0 0 C 1941.13 352.933 t 0 r /Symbol findfont 43.5976 sf 0 0 m (m) show NC gr 
 gsave  2118 2948 0 0 C 1592.35 352.933 t 0 r /Helvetica findfont 43.5976 sf 0 0 m ( Postfit Impact on ) show NC gr 
 gsave  2118 2948 0 0 C 1565.36 352.933 t 0 r /Symbol findfont 43.5976 sf 0 0 m (s) show NC gr 
 gsave  2118 2948 0 0 C 1534.22 352.933 t 0 r /Helvetica findfont 43.5976 sf 0 0 m (\2551) show NC gr  0.2 0.2 1 c 3 lw 1310 342 m 186 X 51 Y -186 X cl s 6 lw 1310 393 m 186 X s 1310 342 m 186 X s 1496 342 m 51 Y s 1310 342 m 51 Y s black
 gsave  2118 2948 0 0 C 126.641 502.411 t 0 r /Helvetica-BoldOblique findfont 99.6518 sf 0 0 m (ATLAS) show NC gr 
 gsave  2118 2948 0 0 C 126.641 346.705 t 0 r /Helvetica findfont 99.6518 sf 0 0 m (Internal) show NC gr 
 gsave  2118 2948 0 0 C 707.943 560.541 t 0 r /Helvetica-Bold findfont 49.8259 sf 0 0 m ( = 13 TeV) show NC gr 
 gsave  2118 2948 0 0 C 680.954 560.541 t 0 r /Helvetica-Bold findfont 49.8259 sf 0 0 m (s) show NC gr  664 590 m 7 -32 d s 3 lw 671 558 m 6 46 d s 677 604 m 31 X s
 gsave  2118 2948 0 0 C 840.812 465.042 t 0 r /Helvetica-Bold findfont 33.2173 sf 0 0 m (\2551) show NC gr 
 gsave  2118 2948 0 0 C 656.041 442.205 t 0 r /Helvetica-Bold findfont 49.8259 sf 0 0 m (139.0 fb) show NC gr 
 gsave  2118 2948 0 0 C 722.475 340.477 t 0 r /Helvetica-Bold findfont 49.8259 sf 0 0 m (=125 GeV) show NC gr 
 gsave  2118 2948 0 0 C 697.562 325.944 t 0 r /Helvetica-Bold findfont 33.2173 sf 0 0 m (A) show NC gr 
 gsave  2118 2948 0 0 C 656.041 340.477 t 0 r /Helvetica-Bold findfont 49.8259 sf 0 0 m (m) show NC gr 
 gr  gr showpage
end
%%EOF
