which: no python in ((null))
mkdir: cannot create directory '/home/etjr/cHAnalysis/Git/cTagSystematicsEvaluation/AllOutputs': File exists
mkdir: cannot create directory '/home/etjr/cHAnalysis/Git/cTagSystematicsEvaluation/AllOutputs/cTagCat1': File exists
